<?xml version="1.0" encoding="UTF-8"?>
<testng-results skipped="0" failed="3" total="26" passed="23">
  <reporter-output>
  </reporter-output>
  <suite name="Command line suite" duration-ms="84335" started-at="2017-11-27T15:19:58Z" finished-at="2017-11-27T15:21:22Z">
    <groups>
    </groups>
    <test name="Command line test" duration-ms="84335" started-at="2017-11-27T15:19:58Z" finished-at="2017-11-27T15:21:22Z">
      <class name="CFG.AutoGenPermissionsTest">
        <test-method status="PASS" signature="testIsAutoGrantedPermission()" name="testIsAutoGrantedPermission" duration-ms="222" started-at="2017-11-27T15:20:58Z" finished-at="2017-11-27T15:20:58Z">
        </test-method>
        <test-method status="PASS" signature="testGetAutoPermissions()" name="testGetAutoPermissions" duration-ms="0" started-at="2017-11-27T15:20:58Z" finished-at="2017-11-27T15:20:58Z">
        </test-method>
        <test-method status="PASS" signature="testReadFile()" name="testReadFile" duration-ms="1" started-at="2017-11-27T15:20:58Z" finished-at="2017-11-27T15:20:58Z">
        </test-method>
      </class>
      <class name="CFG.APKDroidMethodsTest">
        <test-method status="FAIL" signature="testPrintsourceToTarget()" name="testPrintsourceToTarget" duration-ms="28007" started-at="2017-11-27T15:20:07Z" finished-at="2017-11-27T15:20:35Z">
          <exception class="soot.validation.ValidationException">
            <message>
              <![CDATA[There is a path from 'retFragMan = new android.app.FragmentManager' to the usage 'return retFragMan' where <init> does not get called in between.]]>
            </message>
            <full-stacktrace>
              <![CDATA[There is a path from 'retFragMan = new android.app.FragmentManager' to the usage 'return retFragMan' where <init> does not get called in between.
	at soot.jimple.validation.NewValidator.checkForInitializerOnPath(NewValidator.java:182)
	at soot.jimple.validation.NewValidator.validate(NewValidator.java:77)
	at soot.jimple.JimpleBody.validate(JimpleBody.java:114)
	at soot.jimple.JimpleBody.validate(JimpleBody.java:97)
	at soot.PackManager.runBodyPacks(PackManager.java:975)
	at soot.PackManager.access$000(PackManager.java:112)
	at soot.PackManager$1.run(PackManager.java:620)
	at java.util.concurrent.ThreadPoolExecutor.runWorker(ThreadPoolExecutor.java:1149)
	at java.util.concurrent.ThreadPoolExecutor$Worker.run(ThreadPoolExecutor.java:624)
	at java.lang.Thread.run(Thread.java:748)
]]>
            </full-stacktrace>
          </exception>
        </test-method>
      </class>
      <class name="CFG.ApkMainTest">
        <test-method status="PASS" signature="testCallGraphToFile()" name="testCallGraphToFile" duration-ms="0" started-at="2017-11-27T15:20:35Z" finished-at="2017-11-27T15:20:35Z">
        </test-method>
        <test-method status="PASS" signature="testCallGraphToFile1()" name="testCallGraphToFile1" duration-ms="0" started-at="2017-11-27T15:20:35Z" finished-at="2017-11-27T15:20:35Z">
        </test-method>
        <test-method status="PASS" signature="testChangeTargetSDKversion()" name="testChangeTargetSDKversion" duration-ms="8" started-at="2017-11-27T15:20:35Z" finished-at="2017-11-27T15:20:35Z">
        </test-method>
        <test-method status="PASS" signature="testConstructCallgraphApk()" name="testConstructCallgraphApk" duration-ms="5051" started-at="2017-11-27T15:20:35Z" finished-at="2017-11-27T15:20:40Z">
        </test-method>
        <test-method status="PASS" signature="testConstructCallgraphApk1()" name="testConstructCallgraphApk1" duration-ms="0" started-at="2017-11-27T15:20:40Z" finished-at="2017-11-27T15:20:40Z">
        </test-method>
        <test-method status="PASS" signature="testConstructCallgraphApk2()" name="testConstructCallgraphApk2" duration-ms="0" started-at="2017-11-27T15:20:40Z" finished-at="2017-11-27T15:20:40Z">
        </test-method>
        <test-method status="PASS" signature="testFilleToClassesAndMethods()" name="testFilleToClassesAndMethods" duration-ms="231" started-at="2017-11-27T15:20:40Z" finished-at="2017-11-27T15:20:41Z">
        </test-method>
        <test-method status="FAIL" signature="testMain()" name="testMain" duration-ms="16763" started-at="2017-11-27T15:20:41Z" finished-at="2017-11-27T15:20:57Z">
          <exception class="soot.validation.ValidationException">
            <message>
              <![CDATA[There is a path from 'retFragMan = new android.app.FragmentManager' to the usage 'return retFragMan' where <init> does not get called in between.]]>
            </message>
            <full-stacktrace>
              <![CDATA[There is a path from 'retFragMan = new android.app.FragmentManager' to the usage 'return retFragMan' where <init> does not get called in between.
	at soot.jimple.validation.NewValidator.checkForInitializerOnPath(NewValidator.java:182)
	at soot.jimple.validation.NewValidator.validate(NewValidator.java:77)
	at soot.jimple.JimpleBody.validate(JimpleBody.java:114)
	at soot.jimple.JimpleBody.validate(JimpleBody.java:97)
	at soot.PackManager.runBodyPacks(PackManager.java:975)
	at soot.PackManager.access$000(PackManager.java:112)
	at soot.PackManager$1.run(PackManager.java:620)
	at java.util.concurrent.ThreadPoolExecutor.runWorker(ThreadPoolExecutor.java:1149)
	at java.util.concurrent.ThreadPoolExecutor$Worker.run(ThreadPoolExecutor.java:624)
	at java.lang.Thread.run(Thread.java:748)
]]>
            </full-stacktrace>
          </exception>
        </test-method>
        <test-method status="PASS" signature="testProcessManifest()" name="testProcessManifest" duration-ms="3" started-at="2017-11-27T15:20:58Z" finished-at="2017-11-27T15:20:58Z">
        </test-method>
        <test-method status="PASS" signature="testProcessManifest1()" name="testProcessManifest1" duration-ms="0" started-at="2017-11-27T15:20:58Z" finished-at="2017-11-27T15:20:58Z">
        </test-method>
      </class>
      <class name="CFG.ManifestFileTest">
        <test-method status="PASS" signature="testGetAndroidFilePath()" name="testGetAndroidFilePath" duration-ms="1" started-at="2017-11-27T15:20:58Z" finished-at="2017-11-27T15:20:58Z">
        </test-method>
        <test-method status="PASS" signature="testHasNonAutoPermission()" name="testHasNonAutoPermission" duration-ms="36" started-at="2017-11-27T15:20:58Z" finished-at="2017-11-27T15:20:58Z">
        </test-method>
        <test-method status="PASS" signature="testIsSDKLessThanTwentyThree()" name="testIsSDKLessThanTwentyThree" duration-ms="0" started-at="2017-11-27T15:20:58Z" finished-at="2017-11-27T15:20:58Z">
        </test-method>
        <test-method status="PASS" signature="testNeedToProcess()" name="testNeedToProcess" duration-ms="2" started-at="2017-11-27T15:20:58Z" finished-at="2017-11-27T15:20:58Z">
        </test-method>
        <test-method status="PASS" signature="testPrintPermision()" name="testPrintPermision" duration-ms="2" started-at="2017-11-27T15:20:58Z" finished-at="2017-11-27T15:20:58Z">
        </test-method>
        <test-method status="PASS" signature="testPrintPermision1()" name="testPrintPermision1" duration-ms="0" started-at="2017-11-27T15:20:58Z" finished-at="2017-11-27T15:20:58Z">
        </test-method>
      </class>
      <class name="CFG.AndroidInstrumentTest">
        <test-method status="PASS" signature="testTestTranform()" name="testTestTranform" duration-ms="9" started-at="2017-11-27T15:20:35Z" finished-at="2017-11-27T15:20:35Z">
        </test-method>
      </class>
      <class name="CFG.APKDSceneTransformerTest">
        <test-method status="FAIL" signature="testTestTranform()" name="testTestTranform" duration-ms="9206" started-at="2017-11-27T15:19:58Z" finished-at="2017-11-27T15:20:07Z">
          <exception class="soot.validation.ValidationException">
            <message>
              <![CDATA[There is a path from 'retFragMan = new android.app.FragmentManager' to the usage 'return retFragMan' where <init> does not get called in between.]]>
            </message>
            <full-stacktrace>
              <![CDATA[There is a path from 'retFragMan = new android.app.FragmentManager' to the usage 'return retFragMan' where <init> does not get called in between.
	at soot.jimple.validation.NewValidator.checkForInitializerOnPath(NewValidator.java:182)
	at soot.jimple.validation.NewValidator.validate(NewValidator.java:77)
	at soot.jimple.JimpleBody.validate(JimpleBody.java:114)
	at soot.jimple.JimpleBody.validate(JimpleBody.java:97)
	at soot.PackManager.runBodyPacks(PackManager.java:975)
	at soot.PackManager.access$000(PackManager.java:112)
	at soot.PackManager$1.run(PackManager.java:620)
	at java.util.concurrent.ThreadPoolExecutor.runWorker(ThreadPoolExecutor.java:1149)
	at java.util.concurrent.ThreadPoolExecutor$Worker.run(ThreadPoolExecutor.java:624)
	at java.lang.Thread.run(Thread.java:748)
]]>
            </full-stacktrace>
          </exception>
        </test-method>
      </class>
      <class name="CFG.PermissionTest">
        <test-method status="PASS" signature="testAnalyzePermissionFiles()" name="testAnalyzePermissionFiles" duration-ms="2462" started-at="2017-11-27T15:20:58Z" finished-at="2017-11-27T15:21:00Z">
        </test-method>
        <test-method status="PASS" signature="testIsPermissionNeededAPI()" name="testIsPermissionNeededAPI" duration-ms="1586" started-at="2017-11-27T15:21:00Z" finished-at="2017-11-27T15:21:02Z">
        </test-method>
        <test-method status="PASS" signature="testPrintMethodToPermissionMap()" name="testPrintMethodToPermissionMap" duration-ms="17375" started-at="2017-11-27T15:21:02Z" finished-at="2017-11-27T15:21:19Z">
        </test-method>
        <test-method status="PASS" signature="testPrintPermissionToClassMap()" name="testPrintPermissionToClassMap" duration-ms="3271" started-at="2017-11-27T15:21:19Z" finished-at="2017-11-27T15:21:22Z">
        </test-method>
      </class>
    </test>
  </suite>
</testng-results>
